\relax 
\providecommand\hyper@newdestlabel[2]{}
\providecommand\HyperFirstAtBeginDocument{\AtBeginDocument}
\HyperFirstAtBeginDocument{\ifx\hyper@anchor\@undefined
\global\let\oldcontentsline\contentsline
\gdef\contentsline#1#2#3#4{\oldcontentsline{#1}{#2}{#3}}
\global\let\oldnewlabel\newlabel
\gdef\newlabel#1#2{\newlabelxx{#1}#2}
\gdef\newlabelxx#1#2#3#4#5#6{\oldnewlabel{#1}{{#2}{#3}}}
\AtEndDocument{\ifx\hyper@anchor\@undefined
\let\contentsline\oldcontentsline
\let\newlabel\oldnewlabel
\fi}
\fi}
\global\let\hyper@last\relax 
\gdef\HyperFirstAtBeginDocument#1{#1}
\providecommand\HyField@AuxAddToFields[1]{}
\providecommand\HyField@AuxAddToCoFields[2]{}
\providecommand \oddpage@label [2]{}
\@writefile{toc}{\@ifundefined {etoctocstyle}{\let \etoc@startlocaltoc \@gobble \let \etoc@settocdepth \@gobble \let \etoc@depthtag \@gobble \let \etoc@setlocaltop \@gobble }{}}
\@writefile{toc}{\contentsline {chapter}{\numberline {1}Data Structure Index}{1}{chapter.1}\protected@file@percent }
\@writefile{lof}{\addvspace {10\p@ }}
\@writefile{lot}{\addvspace {10\p@ }}
\@writefile{toc}{\contentsline {section}{\numberline {1.1}Data Structures}{1}{section.1.1}\protected@file@percent }
\@writefile{toc}{\contentsline {chapter}{\numberline {2}File Index}{3}{chapter.2}\protected@file@percent }
\@writefile{lof}{\addvspace {10\p@ }}
\@writefile{lot}{\addvspace {10\p@ }}
\@writefile{toc}{\contentsline {section}{\numberline {2.1}File List}{3}{section.2.1}\protected@file@percent }
\@writefile{toc}{\contentsline {chapter}{\numberline {3}Data Structure Documentation}{5}{chapter.3}\protected@file@percent }
\@writefile{lof}{\addvspace {10\p@ }}
\@writefile{lot}{\addvspace {10\p@ }}
\@writefile{toc}{\contentsline {section}{\numberline {3.1}draw\discretionary {\mbox  {\scriptsize  $\hookleftarrow  $}}{}{}\_\discretionary {\mbox  {\scriptsize  $\hookleftarrow  $}}{}{}border Struct Reference}{5}{section.3.1}\protected@file@percent }
\newlabel{structdraw__border}{{3.1}{5}{draw\+\_\+border Struct Reference}{section.3.1}{}}
\newlabel{structdraw__border_ad144a9f46230a1766f22fb791489c2bd}{{3.1}{5}{Data Fields}{section*.1}{}}
\newlabel{structdraw__border_af06aac7aa9396036a0ed2d3c5f23baea}{{3.1}{5}{Data Fields}{section*.1}{}}
\newlabel{structdraw__border_aa370517506229ed7e00a820dbbf8eb5a}{{3.1}{5}{Data Fields}{section*.1}{}}
\newlabel{structdraw__border_a0766e0baa894c6cfd533866d4d12ebe5}{{3.1}{5}{Data Fields}{section*.1}{}}
\newlabel{structdraw__border_a3c520d30cc04a68c8c7bf3de04f18096}{{3.1}{5}{Data Fields}{section*.1}{}}
\newlabel{structdraw__border_aebf0418fc49a3255947ddd4d372f04b8}{{3.1}{5}{Data Fields}{section*.1}{}}
\newlabel{structdraw__border_a8c07b9caa55a9db7ea9ac047da5563b9}{{3.1}{5}{Data Fields}{section*.1}{}}
\newlabel{structdraw__border_a95be0164fd146f7d47a6ec2cce9afa68}{{3.1}{5}{Data Fields}{section*.1}{}}
\@writefile{toc}{\contentsline {subsection}{\numberline {3.1.1}Detailed Description}{5}{subsection.3.1.1}\protected@file@percent }
\@writefile{toc}{\contentsline {section}{\numberline {3.2}draw\discretionary {\mbox  {\scriptsize  $\hookleftarrow  $}}{}{}\_\discretionary {\mbox  {\scriptsize  $\hookleftarrow  $}}{}{}internal Struct Reference}{6}{section.3.2}\protected@file@percent }
\newlabel{structdraw__internal}{{3.2}{6}{draw\+\_\+internal Struct Reference}{section.3.2}{}}
\newlabel{structdraw__internal_ad6520019dd83935c48e4304c30dc07ae}{{3.2}{6}{Data Fields}{section*.2}{}}
\newlabel{structdraw__internal_a53c77dded4be404483936891abeedddc}{{3.2}{6}{Data Fields}{section*.2}{}}
\newlabel{structdraw__internal_a9194f9da611387e459c82ed1f1764edb}{{3.2}{6}{Data Fields}{section*.2}{}}
\newlabel{structdraw__internal_ad40ae24e01adf837d48ade44686dd23a}{{3.2}{6}{Data Fields}{section*.2}{}}
\@writefile{toc}{\contentsline {subsection}{\numberline {3.2.1}Detailed Description}{6}{subsection.3.2.1}\protected@file@percent }
\@writefile{toc}{\contentsline {section}{\numberline {3.3}draw\discretionary {\mbox  {\scriptsize  $\hookleftarrow  $}}{}{}\_\discretionary {\mbox  {\scriptsize  $\hookleftarrow  $}}{}{}internal\discretionary {\mbox  {\scriptsize  $\hookleftarrow  $}}{}{}\_\discretionary {\mbox  {\scriptsize  $\hookleftarrow  $}}{}{}sprite Struct Reference}{6}{section.3.3}\protected@file@percent }
\newlabel{structdraw__internal__sprite}{{3.3}{6}{draw\+\_\+internal\+\_\+sprite Struct Reference}{section.3.3}{}}
\newlabel{structdraw__internal__sprite_a4b5e07ecacfbd12cada6db95b6f56a84}{{3.3}{6}{Data Fields}{section*.3}{}}
\newlabel{structdraw__internal__sprite_afd664fc26de67dcc928e909b866bfd4f}{{3.3}{6}{Data Fields}{section*.3}{}}
\newlabel{structdraw__internal__sprite_adff2eba4c0e9bbef42b4d213ee965c57}{{3.3}{6}{Data Fields}{section*.3}{}}
\newlabel{structdraw__internal__sprite_a0f73254f771a95f727148daf63394ede}{{3.3}{6}{Data Fields}{section*.3}{}}
\newlabel{structdraw__internal__sprite_afb7e3e3fdd622d9751d831965d7255c6}{{3.3}{6}{Data Fields}{section*.3}{}}
\newlabel{structdraw__internal__sprite_a0de931a556e444b0111b02b458500031}{{3.3}{6}{Data Fields}{section*.3}{}}
\@writefile{toc}{\contentsline {subsection}{\numberline {3.3.1}Detailed Description}{6}{subsection.3.3.1}\protected@file@percent }
\@writefile{toc}{\contentsline {chapter}{\numberline {4}File Documentation}{7}{chapter.4}\protected@file@percent }
\@writefile{lof}{\addvspace {10\p@ }}
\@writefile{lot}{\addvspace {10\p@ }}
\@writefile{toc}{\contentsline {section}{\numberline {4.1}gamejam.\discretionary {\mbox  {\scriptsize  $\hookleftarrow  $}}{}{}h File Reference}{7}{section.4.1}\protected@file@percent }
\newlabel{gamejam_8h}{{4.1}{7}{gamejam.\+h File Reference}{section.4.1}{}}
\newlabel{gamejam_8h_aba2a7fe77a7501e5844370eec0185207}{{4.1}{7}{Macros}{section*.5}{}}
\newlabel{gamejam_8h_ad86358bf19927183dd7b4ae215a29731}{{4.1}{7}{Macros}{section*.5}{}}
\newlabel{gamejam_8h_afc9149f5de51bd9ac4f5ebbfa153f018}{{4.1}{7}{Macros}{section*.5}{}}
\newlabel{gamejam_8h_a4534b577b74a58b0f4b7be027af664e0}{{4.1}{7}{Macros}{section*.5}{}}
\newlabel{gamejam_8h_a23c70d699a5a775bc2e1ebeb8603f630}{{4.1}{7}{Macros}{section*.5}{}}
\newlabel{gamejam_8h_a8deb0beccea721b35bdb1b4f7264fe75}{{4.1}{7}{Macros}{section*.5}{}}
\newlabel{gamejam_8h_a82573859711fce56f1aa0a76b18a9b18}{{4.1}{7}{Macros}{section*.5}{}}
\newlabel{gamejam_8h_a9b44987ffdc2af19b635206b94334b69}{{4.1}{7}{Macros}{section*.5}{}}
\newlabel{gamejam_8h_a0287476fe504cfd071bf10263fb9b9f8}{{4.1}{7}{Macros}{section*.5}{}}
\newlabel{gamejam_8h_a07544b84bb0b8d3c7b2580ca0b48a098}{{4.1}{7}{Macros}{section*.5}{}}
\newlabel{gamejam_8h_a30dd0aa7ae6b1f5ffbcdd51024ee6c47}{{4.1}{7}{Macros}{section*.5}{}}
\newlabel{gamejam_8h_a27c03232867e0e1d6477d73e4e385026}{{4.1}{7}{Macros}{section*.5}{}}
\newlabel{gamejam_8h_ae2eb7ceea22b4d7a5e8833f542bd7b24}{{4.1}{7}{Macros}{section*.5}{}}
\newlabel{gamejam_8h_a697a4dbb6586b2627454a4ef43c5b63c}{{4.1}{7}{Macros}{section*.5}{}}
\newlabel{gamejam_8h_ac45fac0dcefd97502824521c5f1d4c4d}{{4.1}{7}{Macros}{section*.5}{}}
\newlabel{gamejam_8h_aa0977659d900017c4b65818c42a60a66}{{4.1}{8}{Macros}{section*.5}{}}
\newlabel{gamejam_8h_a7a6a68cdd6a60e6c78755cc9702de178}{{4.1}{8}{Macros}{section*.5}{}}
\newlabel{gamejam_8h_ae62ae9902bb41f7b2ac1eae54752d7a6}{{4.1}{8}{Macros}{section*.5}{}}
\newlabel{gamejam_8h_af11b3184ba703699e37e7e1352d80dc3}{{4.1}{8}{Macros}{section*.5}{}}
\newlabel{gamejam_8h_a58ee50a6fccd4b0d03d7069d1a004850}{{4.1}{8}{Macros}{section*.5}{}}
\newlabel{gamejam_8h_a1a1cf65ee4c65cd94f72addc844f2435}{{4.1}{8}{Macros}{section*.5}{}}
\newlabel{gamejam_8h_a1073b97d4741b5eb7ad2fd5d9c008673}{{4.1}{8}{Macros}{section*.5}{}}
\newlabel{gamejam_8h_a8e7be85efd3f425f0b38ff33dc8dee07}{{4.1}{8}{Macros}{section*.5}{}}
\newlabel{gamejam_8h_a51a950d9321b03e04936d3c0a854c514}{{4.1}{8}{Macros}{section*.5}{}}
\newlabel{gamejam_8h_ad6a2f181ddaa60ac98016977b8b2e291}{{4.1}{9}{Functions}{section*.6}{}}
\@writefile{toc}{\contentsline {subsection}{\numberline {4.1.1}Detailed Description}{9}{subsection.4.1.1}\protected@file@percent }
\@writefile{toc}{\contentsline {subsection}{\numberline {4.1.2}The draw environment}{9}{subsection.4.1.2}\protected@file@percent }
\newlabel{gamejam_8h_autotoc_md0}{{4.1.2}{9}{The draw environment}{subsection.4.1.2}{}}
\@writefile{toc}{\contentsline {subsubsection}{\numberline {4.1.2.1}Weird behaviour}{9}{subsubsection.4.1.2.1}\protected@file@percent }
\newlabel{gamejam_8h_autotoc_md1}{{4.1.2.1}{9}{Weird behaviour}{subsubsection.4.1.2.1}{}}
\gdef \LT@i {\LT@entry 
    {1}{132.23705pt}\LT@entry 
    {1}{31.40762pt}\LT@entry 
    {1}{31.2727pt}\LT@entry 
    {1}{88.00748pt}}
\@writefile{toc}{\contentsline {subsection}{\numberline {4.1.3}Coordinates}{10}{subsection.4.1.3}\protected@file@percent }
\newlabel{gamejam_8h_autotoc_md2}{{4.1.3}{10}{Coordinates}{subsection.4.1.3}{}}
\@writefile{toc}{\contentsline {subsection}{\numberline {4.1.4}Colors\discretionary {\mbox  {\scriptsize  $\hookleftarrow  $}}{}{}:}{10}{subsection.4.1.4}\protected@file@percent }
\newlabel{gamejam_8h_autotoc_md3}{{4.1.4}{10}{Colors\+:}{subsection.4.1.4}{}}
\@writefile{toc}{\contentsline {subsection}{\numberline {4.1.5}Macro Definition Documentation}{11}{subsection.4.1.5}\protected@file@percent }
\newlabel{gamejam_8h_a19fb45422a81cba0115f90a922e6aa6c}{{4.1.5}{11}{Macro Definition Documentation}{subsection.4.1.5}{}}
\@writefile{toc}{\contentsline {subsubsection}{\numberline {4.1.5.1}draw\_color\_bg}{11}{subsubsection.4.1.5.1}\protected@file@percent }
\newlabel{gamejam_8h_af6175011f2eb0527c7ce37fdc6aa8f5e}{{4.1.5.1}{11}{\texorpdfstring {draw\_color\_bg}{draw\_color\_bg}}{subsubsection.4.1.5.1}{}}
\@writefile{toc}{\contentsline {subsubsection}{\numberline {4.1.5.2}draw\_color\_fg}{11}{subsubsection.4.1.5.2}\protected@file@percent }
\newlabel{gamejam_8h_a337101828d33bc07d9f2e791e2aa68b5}{{4.1.5.2}{11}{\texorpdfstring {draw\_color\_fg}{draw\_color\_fg}}{subsubsection.4.1.5.2}{}}
\@writefile{toc}{\contentsline {subsubsection}{\numberline {4.1.5.3}draw\_flush}{11}{subsubsection.4.1.5.3}\protected@file@percent }
\gdef \LT@ii {\LT@entry 
    {3}{54.79999pt}\LT@entry 
    {3}{76.77562pt}\LT@entry 
    {3}{109.78685pt}}
\gdef \LT@iii {\LT@entry 
    {3}{54.79999pt}\LT@entry 
    {3}{76.77562pt}\LT@entry 
    {3}{219.98958pt}}
\@writefile{toc}{\contentsline {subsection}{\numberline {4.1.6}Function Documentation}{12}{subsection.4.1.6}\protected@file@percent }
\newlabel{gamejam_8h_a24ecf4ab0af75683a8ca633648b89f13}{{4.1.6}{12}{Function Documentation}{subsection.4.1.6}{}}
\@writefile{toc}{\contentsline {subsubsection}{\numberline {4.1.6.1}draw\_destroy()}{12}{subsubsection.4.1.6.1}\protected@file@percent }
\newlabel{gamejam_8h_a9537ef78af208cf6280316c067eb3cb9}{{4.1.6.1}{12}{\texorpdfstring {draw\_destroy()}{draw\_destroy()}}{table.4.2}{}}
\@writefile{toc}{\contentsline {subsubsection}{\numberline {4.1.6.2}draw\_init()}{12}{subsubsection.4.1.6.2}\protected@file@percent }
\newlabel{gamejam_8h_a905a05af2a18a88d2f0c6324af955cc9}{{4.1.6.2}{12}{\texorpdfstring {draw\_init()}{draw\_init()}}{table.4.3}{}}
\gdef \LT@iv {\LT@entry 
    {3}{30.79999pt}\LT@entry 
    {3}{33.40558pt}\LT@entry 
    {3}{76.92868pt}}
\gdef \LT@v {\LT@entry 
    {3}{30.79999pt}\LT@entry 
    {3}{36.91547pt}\LT@entry 
    {3}{76.92868pt}}
\@writefile{toc}{\contentsline {subsubsection}{\numberline {4.1.6.3}draw\_line\_hori()}{13}{subsubsection.4.1.6.3}\protected@file@percent }
\newlabel{gamejam_8h_a2ae4447c9c34d44e6611a5a0b1006d6a}{{4.1.6.3}{13}{\texorpdfstring {draw\_line\_hori()}{draw\_line\_hori()}}{table.4.4}{}}
\@writefile{toc}{\contentsline {subsubsection}{\numberline {4.1.6.4}draw\_line\_vert()}{13}{subsubsection.4.1.6.4}\protected@file@percent }
\newlabel{gamejam_8h_a759efc3926dc40b79064f4a8ac4f8ddb}{{4.1.6.4}{13}{\texorpdfstring {draw\_line\_vert()}{draw\_line\_vert()}}{table.4.5}{}}
\@writefile{toc}{\contentsline {subsubsection}{\numberline {4.1.6.5}draw\_print\_center()}{13}{subsubsection.4.1.6.5}\protected@file@percent }
\gdef \LT@vi {\LT@entry 
    {3}{30.79999pt}\LT@entry 
    {3}{33.40558pt}\LT@entry 
    {3}{207.36212pt}}
\gdef \LT@vii {\LT@entry 
    {3}{30.79999pt}\LT@entry 
    {3}{33.40558pt}\LT@entry 
    {3}{89.82552pt}}
\newlabel{gamejam_8h_aafdd517c7b6a1951d1fdfcdca5883e40}{{4.1.6.5}{14}{\texorpdfstring {draw\_print\_center()}{draw\_print\_center()}}{table.4.6}{}}
\@writefile{toc}{\contentsline {subsubsection}{\numberline {4.1.6.6}draw\_print\_fixedwidth()}{14}{subsubsection.4.1.6.6}\protected@file@percent }
\newlabel{gamejam_8h_aa93fab06c88253c15ab0237bf878413e}{{4.1.6.6}{14}{\texorpdfstring {draw\_print\_fixedwidth()}{draw\_print\_fixedwidth()}}{table.4.7}{}}
\@writefile{toc}{\contentsline {subsubsection}{\numberline {4.1.6.7}draw\_print\_tickertext()}{14}{subsubsection.4.1.6.7}\protected@file@percent }
\gdef \LT@viii {\LT@entry 
    {3}{30.79999pt}\LT@entry 
    {3}{36.41165pt}\LT@entry 
    {3}{235.73915pt}}
\gdef \LT@ix {\LT@entry 
    {3}{30.79999pt}\LT@entry 
    {3}{65.41808pt}\LT@entry 
    {3}{268.14755pt}}
\newlabel{gamejam_8h_a19abf18a3c6015b58c624de4b8f82cc2}{{4.1.6.7}{15}{\texorpdfstring {draw\_print\_tickertext()}{draw\_print\_tickertext()}}{table.4.8}{}}
\@writefile{toc}{\contentsline {subsubsection}{\numberline {4.1.6.8}draw\_prompt\_selection()}{15}{subsubsection.4.1.6.8}\protected@file@percent }
\gdef \LT@x {\LT@entry 
    {3}{30.79999pt}\LT@entry 
    {3}{36.91547pt}\LT@entry 
    {3}{76.92868pt}}
\gdef \LT@xi {\LT@entry 
    {3}{30.79999pt}\LT@entry 
    {3}{38.40948pt}\LT@entry 
    {3}{162.19276pt}}
\newlabel{gamejam_8h_a454db351662c5477486a21674ad4c9c7}{{4.1.6.8}{16}{\texorpdfstring {draw\_prompt\_selection()}{draw\_prompt\_selection()}}{table.4.9}{}}
\@writefile{toc}{\contentsline {subsubsection}{\numberline {4.1.6.9}draw\_rect\_fill()}{16}{subsubsection.4.1.6.9}\protected@file@percent }
\newlabel{gamejam_8h_aed272404c78e00df27f0b9ace34b2add}{{4.1.6.9}{16}{\texorpdfstring {draw\_rect\_fill()}{draw\_rect\_fill()}}{table.4.10}{}}
\@writefile{toc}{\contentsline {subsubsection}{\numberline {4.1.6.10}draw\_rect\_outline()}{16}{subsubsection.4.1.6.10}\protected@file@percent }
\gdef \LT@xii {\LT@entry 
    {3}{30.79999pt}\LT@entry 
    {3}{36.91547pt}\LT@entry 
    {3}{170.49066pt}}
\newlabel{gamejam_8h_aa1a9b361f9d69d713d4d655bbec1a8f4}{{4.1.6.10}{17}{\texorpdfstring {draw\_rect\_outline()}{draw\_rect\_outline()}}{table.4.11}{}}
\@writefile{toc}{\contentsline {subsubsection}{\numberline {4.1.6.11}draw\_rect\_shadow()}{17}{subsubsection.4.1.6.11}\protected@file@percent }
\newlabel{gamejam_8h_a6693c5463f4327bf883365e954a6fe01}{{4.1.6.11}{17}{\texorpdfstring {draw\_rect\_shadow()}{draw\_rect\_shadow()}}{table.4.12}{}}
\@writefile{toc}{\contentsline {subsubsection}{\numberline {4.1.6.12}draw\_shadowed\_box()}{17}{subsubsection.4.1.6.12}\protected@file@percent }
\gdef \LT@xiii {\LT@entry 
    {3}{30.79999pt}\LT@entry 
    {3}{62.78127pt}\LT@entry 
    {3}{268.14755pt}}
\gdef \LT@xiv {\LT@entry 
    {3}{30.79999pt}\LT@entry 
    {3}{23.90182pt}\LT@entry 
    {3}{76.92868pt}}
\newlabel{gamejam_8h_a00fc542672517f1f632230ee472cfec4}{{4.1.6.12}{19}{\texorpdfstring {draw\_shadowed\_box()}{draw\_shadowed\_box()}}{table.4.13}{}}
\@writefile{toc}{\contentsline {subsubsection}{\numberline {4.1.6.13}draw\_sprite()}{19}{subsubsection.4.1.6.13}\protected@file@percent }
\newlabel{gamejam_8h_a6bb2bbe1b556977fc2dfdd3026fd0b6f}{{4.1.6.13}{19}{\texorpdfstring {draw\_sprite()}{draw\_sprite()}}{table.4.14}{}}
\@writefile{toc}{\contentsline {subsubsection}{\numberline {4.1.6.14}draw\_sprite\_in\_box()}{19}{subsubsection.4.1.6.14}\protected@file@percent }
\gdef \LT@xv {\LT@entry 
    {3}{30.79999pt}\LT@entry 
    {3}{56.15721pt}\LT@entry 
    {3}{118.6877pt}}
\gdef \LT@xvi {\LT@entry 
    {3}{30.79999pt}\LT@entry 
    {3}{57.83105pt}\LT@entry 
    {3}{314.28578pt}}
\newlabel{gamejam_8h_aafe5abd211e208c85207f363358d1997}{{4.1.6.14}{20}{\texorpdfstring {draw\_sprite\_in\_box()}{draw\_sprite\_in\_box()}}{table.4.15}{}}
\@writefile{toc}{\contentsline {subsubsection}{\numberline {4.1.6.15}draw\_sprite\_set()}{20}{subsubsection.4.1.6.15}\protected@file@percent }
\gdef \LT@xvii {\LT@entry 
    {3}{17.8039pt}\LT@entry 
    {3}{437.44022pt}}
\newlabel{gamejam_8h_aeb23254b6551d127c53b5534ab90c39f}{{4.1.6.15}{21}{\texorpdfstring {draw\_sprite\_set()}{draw\_sprite\_set()}}{table.4.17}{}}
\@writefile{toc}{\contentsline {subsubsection}{\numberline {4.1.6.16}draw\_term\_echo\_hide()}{21}{subsubsection.4.1.6.16}\protected@file@percent }
\newlabel{gamejam_8h_a45cda6d45121676b80950baff66ed0df}{{4.1.6.16}{21}{\texorpdfstring {draw\_term\_echo\_hide()}{draw\_term\_echo\_hide()}}{subsubsection.4.1.6.16}{}}
\@writefile{toc}{\contentsline {subsubsection}{\numberline {4.1.6.17}draw\_term\_echo\_show()}{21}{subsubsection.4.1.6.17}\protected@file@percent }
\newlabel{gamejam_8h_a7aa7b16b5038ed4507cf74967cd398ac}{{4.1.6.17}{21}{\texorpdfstring {draw\_term\_echo\_show()}{draw\_term\_echo\_show()}}{subsubsection.4.1.6.17}{}}
\@writefile{toc}{\contentsline {subsubsection}{\numberline {4.1.6.18}draw\_term\_get\_cols()}{21}{subsubsection.4.1.6.18}\protected@file@percent }
\newlabel{gamejam_8h_a1ac88649b9ae1a89aae9b95d1988c9f5}{{4.1.6.18}{21}{\texorpdfstring {draw\_term\_get\_cols()}{draw\_term\_get\_cols()}}{subsubsection.4.1.6.18}{}}
\@writefile{toc}{\contentsline {subsubsection}{\numberline {4.1.6.19}draw\_term\_get\_rows()}{21}{subsubsection.4.1.6.19}\protected@file@percent }
\newlabel{gamejam_8h_a5a4c9bcb0cd120780d9cf07d28dda6b9}{{4.1.6.19}{21}{\texorpdfstring {draw\_term\_get\_rows()}{draw\_term\_get\_rows()}}{subsubsection.4.1.6.19}{}}
\gdef \LT@xviii {\LT@entry 
    {3}{54.79999pt}\LT@entry 
    {3}{31.91156pt}\LT@entry 
    {3}{382.11229pt}}
\@writefile{toc}{\contentsline {subsubsection}{\numberline {4.1.6.20}input\_init()}{22}{subsubsection.4.1.6.20}\protected@file@percent }
\newlabel{gamejam_8h_a43c7fbdf537171f55f8c0d03ab8a8b4b}{{4.1.6.20}{22}{\texorpdfstring {input\_init()}{input\_init()}}{subsubsection.4.1.6.20}{}}
\@writefile{toc}{\contentsline {subsubsection}{\numberline {4.1.6.21}input\_read()}{22}{subsubsection.4.1.6.21}\protected@file@percent }
\@writefile{toc}{\contentsline {chapter}{Index}{23}{section*.7}\protected@file@percent }
